Assignment4 – Hanying Bi
…
cat(
  "Successfully loaded", nrow(DODq), "reports spanning",
  min(DODq$year), "to", max(DODq$year), "\n"
)

Successfully loaded 27 reports spanning 1999 to 2025 

print(DODq %>% select(doc_id, year))

# A tibble: 27 × 2
   doc_id          year
   <chr>          <dbl>
 1 USDOD_1999.pdf  1999
 2 USDOD_2000.pdf  2000
 3 USDOD_2001.pdf  2001
 4 USDOD_2002.pdf  2002
 5 USDOD_2003.pdf  2003
 6 USDOD_2004.pdf  2004
 7 USDOD_2005.pdf  2005
 8 USDOD_2006.pdf  2006
 9 USDOD_2007.pdf  2007
10 USDOD_2008.pdf  2008
# ℹ 17 more rows
…
# -----------------------------
# 11. Extract Wordfish document positions
# -----------------------------

doc_pos <- tibble(
  document = docnames(dfmat_wf),
  theta = as.numeric(tmod_wf$theta),
  year = as.numeric(str_extract(docnames(dfmat_wf), "\\d{4}")),
  president = docvars(dfmat_wf, "president")
) %>%
  arrange(year)

print(doc_pos)

# A tibble: 27 × 4
   document          theta  year president
   <chr>             <dbl> <dbl> <chr>    
 1 USDOD_1999.pdf -4.21     1999 Clinton  
 2 USDOD_2000.pdf -0.394    2000 Clinton  
 3 USDOD_2001.pdf -1.61     2001 Bush     
 4 USDOD_2002.pdf -0.597    2002 Bush     
 5 USDOD_2003.pdf -0.423    2003 Bush     
 6 USDOD_2004.pdf -0.242    2004 Bush     
 7 USDOD_2005.pdf -0.263    2005 Bush     
 8 USDOD_2006.pdf -0.159    2006 Bush     
 9 USDOD_2007.pdf -0.129    2007 Bush     
10 USDOD_2008.pdf  0.00322  2008 Bush     
# ℹ 17 more rows
…
# -----------------------------
# 14. Diagnostic: document lengths
# -----------------------------

doc_lengths <- tibble(
  document = docnames(dfmat_wf),
  tokens = ntoken(dfmat_wf),
  year = as.numeric(str_extract(docnames(dfmat_wf), "\\d{4}")),
  president = docvars(dfmat_wf, "president")
) %>%
  arrange(tokens)

print(doc_lengths)

# A tibble: 27 × 4
   document       tokens  year president
   <chr>           <int> <dbl> <chr>    
 1 USDOD_2000.pdf   2445  2000 Clinton  
 2 USDOD_2012.pdf   2554  2012 Obama    
 3 USDOD_2007.pdf   3095  2007 Bush     
 4 USDOD_2005.pdf   3291  2005 Bush     
 5 USDOD_2006.pdf   3670  2006 Bush     
 6 USDOD_2004.pdf   4094  2004 Bush     
 7 USDOD_2003.pdf   4440  2003 Bush     
 8 USDOD_2002.pdf   4528  2002 Bush     
 9 USDOD_2008.pdf   4842  2008 Bush     
10 USDOD_2013.pdf   5643  2013 Obama    
# ℹ 17 more rows
…
